{
  "kind": "singleType",
  "collectionName": "jenis_layanans",
  "info": {
    "name": "Jenis Layanan"
  },
  "options": {
    "increments": true,
    "timestamps": true,
    "draftAndPublish": true
  },
  "pluginOptions": {},
  "attributes": {
    "title": {
      "type": "string"
    },
    "content": {
      "type": "richtext"
    }
  }
}
