{
  "kind": "collectionType",
  "collectionName": "gallery_items",
  "info": {
    "name": "Gallery Item",
    "description": ""
  },
  "options": {
    "increments": true,
    "timestamps": true,
    "draftAndPublish": false
  },
  "pluginOptions": {},
  "attributes": {
    "gallery": {
      "via": "gallery_items",
      "model": "gallery"
    },
    "title": {
      "type": "string"
    },
    "image": {
      "collection": "file",
      "via": "related",
      "allowedTypes": [
        "images"
      ],
      "plugin": "upload",
      "required": true,
      "pluginOptions": {}
    }
  }
}
