{
  "routes": [
    {
      "method": "GET",
      "path": "/rules",
      "handler": "rules.find",
      "config": {
        "policies": []
      }
    },
    {
      "method": "GET",
      "path": "/rules/count",
      "handler": "rules.count",
      "config": {
        "policies": []
      }
    },
    {
      "method": "GET",
      "path": "/rules/:id",
      "handler": "rules.findOne",
      "config": {
        "policies": []
      }
    },
    {
      "method": "POST",
      "path": "/rules",
      "handler": "rules.create",
      "config": {
        "policies": []
      }
    },
    {
      "method": "PUT",
      "path": "/rules/:id",
      "handler": "rules.update",
      "config": {
        "policies": []
      }
    },
    {
      "method": "DELETE",
      "path": "/rules/:id",
      "handler": "rules.delete",
      "config": {
        "policies": []
      }
    }
  ]
}
