{
  "routes": [
    {
      "method": "GET",
      "path": "/teacher-achievements",
      "handler": "teacher-achievement.find",
      "config": {
        "policies": []
      }
    },
    {
      "method": "GET",
      "path": "/teacher-achievements/count",
      "handler": "teacher-achievement.count",
      "config": {
        "policies": []
      }
    },
    {
      "method": "GET",
      "path": "/teacher-achievements/:id",
      "handler": "teacher-achievement.findOne",
      "config": {
        "policies": []
      }
    },
    {
      "method": "POST",
      "path": "/teacher-achievements",
      "handler": "teacher-achievement.create",
      "config": {
        "policies": []
      }
    },
    {
      "method": "PUT",
      "path": "/teacher-achievements/:id",
      "handler": "teacher-achievement.update",
      "config": {
        "policies": []
      }
    },
    {
      "method": "DELETE",
      "path": "/teacher-achievements/:id",
      "handler": "teacher-achievement.delete",
      "config": {
        "policies": []
      }
    }
  ]
}
