{
  "routes": [
    {
      "method": "GET",
      "path": "/vidios",
      "handler": "vidio.find",
      "config": {
        "policies": []
      }
    },
    {
      "method": "GET",
      "path": "/vidios/count",
      "handler": "vidio.count",
      "config": {
        "policies": []
      }
    },
    {
      "method": "GET",
      "path": "/vidios/:id",
      "handler": "vidio.findOne",
      "config": {
        "policies": []
      }
    },
    {
      "method": "POST",
      "path": "/vidios",
      "handler": "vidio.create",
      "config": {
        "policies": []
      }
    },
    {
      "method": "PUT",
      "path": "/vidios/:id",
      "handler": "vidio.update",
      "config": {
        "policies": []
      }
    },
    {
      "method": "DELETE",
      "path": "/vidios/:id",
      "handler": "vidio.delete",
      "config": {
        "policies": []
      }
    }
  ]
}
