{
  "kind": "singleType",
  "collectionName": "tupoksi_satkers",
  "info": {
    "name": "Tupoksi Satker"
  },
  "options": {
    "increments": true,
    "timestamps": true,
    "draftAndPublish": false
  },
  "pluginOptions": {},
  "attributes": {
    "title": {
      "type": "string",
      "required": true
    },
    "content": {
      "type": "richtext"
    }
  }
}
