{
  "routes": [
    {
      "method": "GET",
      "path": "/alumni-info",
      "handler": "alumni-info.find",
      "config": {
        "policies": []
      }
    },
    {
      "method": "PUT",
      "path": "/alumni-info",
      "handler": "alumni-info.update",
      "config": {
        "policies": []
      }
    },
    {
      "method": "DELETE",
      "path": "/alumni-info",
      "handler": "alumni-info.delete",
      "config": {
        "policies": []
      }
    }
  ]
}
