{
  "kind": "collectionType",
  "collectionName": "mapels",
  "info": {
    "name": "mapel",
    "description": ""
  },
  "options": {
    "increments": true,
    "timestamps": true,
    "draftAndPublish": true
  },
  "pluginOptions": {},
  "attributes": {
    "titel": {
      "type": "string"
    },
    "namamapel": {
      "type": "string"
    },
    "motomapel": {
      "type": "string"
    },
    "images": {
      "model": "file",
      "via": "related",
      "allowedTypes": [
        "images",
        "files",
        "videos"
      ],
      "plugin": "upload",
      "required": false,
      "pluginOptions": {}
    },
    "deskripsimapel": {
      "type": "richtext"
    }
  }
}
