{
  "kind": "collectionType",
  "collectionName": "aboutsingles",
  "info": {
    "name": "aboutsingle"
  },
  "options": {
    "increments": true,
    "timestamps": true,
    "draftAndPublish": true
  },
  "pluginOptions": {},
  "attributes": {
    "title": {
      "type": "string"
    },
    "images": {
      "model": "file",
      "via": "related",
      "allowedTypes": [
        "images",
        "files",
        "videos"
      ],
      "plugin": "upload",
      "required": false,
      "pluginOptions": {}
    },
    "deskripsi": {
      "type": "string"
    }
  }
}
