{
  "kind": "collectionType",
  "collectionName": "student_achievements",
  "info": {
    "name": "Student Achievements",
    "description": ""
  },
  "options": {
    "increments": true,
    "timestamps": true,
    "draftAndPublish": false
  },
  "pluginOptions": {},
  "attributes": {
    "student": {
      "model": "student"
    },
    "contest": {
      "type": "string",
      "required": true
    },
    "organizer": {
      "type": "string",
      "required": true
    },
    "result": {
      "type": "string",
      "required": true
    },
    "date": {
      "type": "date",
      "required": true
    },
    "images": {
      "model": "file",
      "via": "related",
      "allowedTypes": [
        "images",
        "files",
        "videos"
      ],
      "plugin": "upload",
      "required": false,
      "pluginOptions": {}
    }
  }
}
