{
  "routes": [
    {
      "method": "GET",
      "path": "/program-keahlians",
      "handler": "program-keahlian.find",
      "config": {
        "policies": []
      }
    },
    {
      "method": "GET",
      "path": "/program-keahlians/count",
      "handler": "program-keahlian.count",
      "config": {
        "policies": []
      }
    },
    {
      "method": "GET",
      "path": "/program-keahlians/:id",
      "handler": "program-keahlian.findOne",
      "config": {
        "policies": []
      }
    },
    {
      "method": "POST",
      "path": "/program-keahlians",
      "handler": "program-keahlian.create",
      "config": {
        "policies": []
      }
    },
    {
      "method": "PUT",
      "path": "/program-keahlians/:id",
      "handler": "program-keahlian.update",
      "config": {
        "policies": []
      }
    },
    {
      "method": "DELETE",
      "path": "/program-keahlians/:id",
      "handler": "program-keahlian.delete",
      "config": {
        "policies": []
      }
    }
  ]
}
