{
  "kind": "collectionType",
  "collectionName": "vidios",
  "info": {
    "name": "vidio"
  },
  "options": {
    "increments": true,
    "timestamps": true,
    "draftAndPublish": true
  },
  "pluginOptions": {},
  "attributes": {
    "link": {
      "type": "string"
    }
  }
}
