{
  "routes": [
    {
      "method": "GET",
      "path": "/lps-1-struktur-organisasi",
      "handler": "lps1-struktur-organisasi.find",
      "config": {
        "policies": []
      }
    },
    {
      "method": "PUT",
      "path": "/lps-1-struktur-organisasi",
      "handler": "lps1-struktur-organisasi.update",
      "config": {
        "policies": []
      }
    },
    {
      "method": "DELETE",
      "path": "/lps-1-struktur-organisasi",
      "handler": "lps1-struktur-organisasi.delete",
      "config": {
        "policies": []
      }
    }
  ]
}
