{
  "kind": "collectionType",
  "collectionName": "majors",
  "info": {
    "name": "major"
  },
  "options": {
    "increments": true,
    "timestamps": true,
    "draftAndPublish": false
  },
  "pluginOptions": {},
  "attributes": {
    "name": {
      "type": "string",
      "required": true
    }
  }
}
