{
  "routes": [
    {
      "method": "GET",
      "path": "/teacher-identities",
      "handler": "teacher-identity.find",
      "config": {
        "policies": []
      }
    },
    {
      "method": "GET",
      "path": "/teacher-identities/count",
      "handler": "teacher-identity.count",
      "config": {
        "policies": []
      }
    },
    {
      "method": "GET",
      "path": "/teacher-identities/:id",
      "handler": "teacher-identity.findOne",
      "config": {
        "policies": []
      }
    },
    {
      "method": "POST",
      "path": "/teacher-identities",
      "handler": "teacher-identity.create",
      "config": {
        "policies": []
      }
    },
    {
      "method": "PUT",
      "path": "/teacher-identities/:id",
      "handler": "teacher-identity.update",
      "config": {
        "policies": []
      }
    },
    {
      "method": "DELETE",
      "path": "/teacher-identities/:id",
      "handler": "teacher-identity.delete",
      "config": {
        "policies": []
      }
    }
  ]
}
