{
  "kind": "collectionType",
  "collectionName": "oraganisasis",
  "info": {
    "name": "oraganisasi"
  },
  "options": {
    "increments": true,
    "timestamps": true,
    "draftAndPublish": true
  },
  "pluginOptions": {},
  "attributes": {
    "jabatan": {
      "type": "string"
    },
    "teacher": {
      "model": "teacher"
    }
  }
}
