{
  "routes": [
    {
      "method": "GET",
      "path": "/work-program",
      "handler": "work-program.find",
      "config": {
        "policies": []
      }
    },
    {
      "method": "PUT",
      "path": "/work-program",
      "handler": "work-program.update",
      "config": {
        "policies": []
      }
    },
    {
      "method": "DELETE",
      "path": "/work-program",
      "handler": "work-program.delete",
      "config": {
        "policies": []
      }
    }
  ]
}
