{
  "routes": [
    {
      "method": "GET",
      "path": "/lps-1-kompetensi",
      "handler": "lps1-kompetensi.find",
      "config": {
        "policies": []
      }
    },
    {
      "method": "PUT",
      "path": "/lps-1-kompetensi",
      "handler": "lps1-kompetensi.update",
      "config": {
        "policies": []
      }
    },
    {
      "method": "DELETE",
      "path": "/lps-1-kompetensi",
      "handler": "lps1-kompetensi.delete",
      "config": {
        "policies": []
      }
    }
  ]
}
