{
  "kind": "collectionType",
  "collectionName": "infos",
  "info": {
    "name": "Info"
  },
  "options": {
    "increments": true,
    "timestamps": true,
    "draftAndPublish": true
  },
  "pluginOptions": {},
  "attributes": {
    "title": {
      "type": "string",
      "required": true
    },
    "date": {
      "type": "date",
      "required": true
    },
    "content": {
      "type": "richtext",
      "required": true
    }
  }
}
