{
  "kind": "collectionType",
  "collectionName": "extracurriculars",
  "info": {
    "name": "Extracurricular"
  },
  "options": {
    "increments": true,
    "timestamps": true,
    "draftAndPublish": false
  },
  "pluginOptions": {},
  "attributes": {
    "name": {
      "type": "string",
      "required": true
    },
    "location": {
      "type": "string",
      "required": true
    },
    "description": {
      "type": "text",
      "required": true
    }
  }
}
