{
  "routes": [
    {
      "method": "GET",
      "path": "/public-service-notes",
      "handler": "public-service-note.find",
      "config": {
        "policies": []
      }
    },
    {
      "method": "GET",
      "path": "/public-service-notes/count",
      "handler": "public-service-note.count",
      "config": {
        "policies": []
      }
    },
    {
      "method": "GET",
      "path": "/public-service-notes/:id",
      "handler": "public-service-note.findOne",
      "config": {
        "policies": []
      }
    },
    {
      "method": "POST",
      "path": "/public-service-notes",
      "handler": "public-service-note.create",
      "config": {
        "policies": []
      }
    },
    {
      "method": "PUT",
      "path": "/public-service-notes/:id",
      "handler": "public-service-note.update",
      "config": {
        "policies": []
      }
    },
    {
      "method": "DELETE",
      "path": "/public-service-notes/:id",
      "handler": "public-service-note.delete",
      "config": {
        "policies": []
      }
    }
  ]
}
