{
  "kind": "collectionType",
  "collectionName": "articles",
  "info": {
    "name": "Article",
    "description": ""
  },
  "options": {
    "increments": true,
    "timestamps": true,
    "draftAndPublish": true
  },
  "pluginOptions": {},
  "attributes": {
    "title": {
      "type": "string",
      "required": true
    },
    "date": {
      "type": "datetime",
      "required": false
    },
    "content": {
      "type": "richtext",
      "required": true
    },
    "read": {
      "type": "biginteger",
      "default": "0",
      "required": true
    },
    "author": {
      "type": "string",
      "required": false
    },
    "images": {
      "collection": "file",
      "via": "related",
      "allowedTypes": [
        "images",
        "files",
        "videos"
      ],
      "plugin": "upload",
      "required": false,
      "pluginOptions": {}
    },
    "category": {
      "type": "enumeration",
      "enum": [
        "agendas",
        "articles",
        "berita",
        "info",
        "opini",
        "link"
      ]
    }
  }
}
